{
  "id": "referencement",
  "title": "Référencement",
  "excerpt": "We provide the most responsive and functional IT design for companies and businesses worldwide.",
  "image": "../../images/box-image/image-08-370x370.jpg",
  "icon": {
    "svg": "../../images/icons/linea-basic-alarm.svg",
    "img": "../../images/icons/icon-14-80x83.png"
  },
  "is_featured": true,
  "banner_image": "../../images/banner/banner-02.jpg",
  "introText": {
    "heading": "Mitech specializes in <span>technological and IT-related services</span> such as product engineering, warranty management, building cloud, infrastructure, network, etc.",
    "text": "We’re available for 8 hours a day! <br/>Contact to require a detailed analysis and assessment of your plan."
  },
  "faq": [
    {
      "id": "highly-service-faq-1",
      "title": "New multiple site connectivity",
      "desc": "We use a newly developed technology to connect sites that are based on different types of servers and networks, SiteConnect, which helps to reduce the misinterpretation of signals as well as the loss of data during transfering."
    },
    {
      "id": "highly-service-faq-2",
      "title": "IT Security & Software",
      "desc": "To keep your systems, your devices, and network stay secure, we have developed a new program that limits the access of suspicious objects or people and authenticate all logins to the system."
    },
    {
      "id": "highly-service-faq-3",
      "title": "Weak hosted capability",
      "desc": "Some hosts are unaware of the potential risks as well as security loopholes in their system. By detecting these errors and taking prompt actions on improving firewalls, we can upgrade the system security."
    },
    {
      "id": "highly-service-faq-4",
      "title": "Build internal network",
      "desc": "The internal network is essential for all companies and corporations, especially for those working in IT sector. To avoid possible risks when sharing internal confidential files and documentation to an external receiver, internal network must be strong."
    }
  ],
  "video": {
    "preview_image": "../../images/about-us/video-01-image-01-570x350.jpg",
    "video_link": "https://www.youtube.com/watch?v=9No-FiEInLA"
  },
  "features": {
    "title": "Prominent IT Security Services",
    "items": [
      {
        "id": "highly-professional-features-1",
        "icon": "../../images/icons/icon-07-60x60.png",
        "title": "Mitech Management Systems",
        "desc": "Our service offerings enhance customer experience throughout secure & highly functional end-to-end warranty management."
      },
      {
        "id": "highly-professional-features-2",
        "icon": "../../images/icons/icon-08-60x60.png",
        "title": "Reliable Multi-function Technology",
        "desc": "Develop and propose product improvements through periodical and accurate testing, repairing & refining every version."
      },
      {
        "id": "highly-professional-features-3",
        "icon": "../../images/icons/icon-09-60x60.png",
        "title": "Highly Professional Staffs",
        "desc": "Develop and propose product improvements through periodical and accurate testing, repairing & refining every version."
      },
      {
        "id": "highly-professional-features-4",
        "icon": "../../images/icons/icon-10-60x60.png",
        "title": "Infrastructure Integration Technology",
        "desc": "At Mitech, we have a holistic and integrated approach towards core modernization to experience technological evolution."
      }
    ]
  }
}
