{
  "SEO": {
    "uid": {
      "type": "UID",
      "config": {
        "label": "Unique ID",
        "placeholder": "Type an SEO-friendly identifier..."
      }
    },
    "meta_title": {
      "type": "Text",
      "config": {
        "label": "Meta Title",
        "placeholder": "Meta title..."
      }
    },
    "meta_description": {
      "type": "Text",
      "config": {
        "label": "Meta Description",
        "placeholder": "Meta Description..."
      }
    },
    "keywords": {
      "type": "Text",
      "config": {
        "label": "Keywords"
      }
    }
  },
  "Main": {
    "page_title": {
      "type": "Text",
      "config": {
        "label": "Titre de la page"
      }
    },
    "cover_img": {
      "type": "Image",
      "config": {
        "constraint": {},
        "thumbnails": [],
        "label": "Image de couverture"
      }
    }
  },
  "À propos": {
    "about_title": {
      "type": "StructuredText",
      "config": {
        "multi": "paragraph, preformatted, heading1, heading2, heading3, heading4, heading5, heading6, strong, em, hyperlink, image, embed, list-item, o-list-item",
        "label": "Title"
      }
    },
    "about_texte": {
      "type": "StructuredText",
      "config": {
        "multi": "paragraph, preformatted, heading1, heading2, heading3, heading4, heading5, heading6, strong, em, hyperlink, image, embed, list-item, o-list-item, rtl",
        "label": "Texte"
      }
    }
  },
  "Steps": {
    "steps_title": {
      "type": "StructuredText",
      "config": {
        "multi": "paragraph, preformatted, heading1, heading2, heading3, heading4, heading5, heading6, strong, em, hyperlink, image, embed, list-item, o-list-item, rtl",
        "label": "Title"
      }
    },
    "steps_descriptions": {
      "type": "Group",
      "config": {
        "fields": {
          "step_description": {
            "type": "StructuredText",
            "config": {
              "multi": "paragraph, preformatted, heading1, heading2, heading3, heading4, heading5, heading6, strong, em, hyperlink, image, embed, list-item, o-list-item, rtl",
              "label": "Step description"
            }
          },
          "steps_link": {
            "type": "Link",
            "config": {
              "label": "Link"
            }
          }
        },
        "label": "steps_descriptions"
      }
    }
  },
  "FAQ": {
    "faq_title": {
      "type": "StructuredText",
      "config": {
        "multi": "paragraph, preformatted, heading1, heading2, heading3, heading4, heading5, heading6, strong, em, hyperlink, image, embed, list-item, o-list-item, rtl",
        "label": "Title"
      }
    },
    "faq_video_image": {
      "type": "Image",
      "config": {
        "constraint": {},
        "thumbnails": [],
        "label": "Video image"
      }
    },
    "faq_video_url": {
      "type": "Link",
      "config": {
        "label": "Video url"
      }
    },
    "faq": {
      "type": "Group",
      "config": {
        "fields": {
          "faq_title1": {
            "type": "Text",
            "config": {
              "label": "Title"
            }
          },
          "faq_content": {
            "type": "StructuredText",
            "config": {
              "multi": "paragraph, preformatted, heading1, heading2, heading3, heading4, heading5, heading6, strong, em, hyperlink, image, embed, list-item, o-list-item, rtl",
              "label": "Content"
            }
          }
        },
        "label": "FAQ"
      }
    }
  }
}
