{
  "Main": {
    "title": {
      "type": "StructuredText",
      "config": {
        "single": "heading1",
        "label": "Title"
      }
    },
    "relations": {
      "type": "Group",
      "config": {
        "fields": {
          "category": {
            "type": "Link",
            "config": {
              "select": "document",
              "customtypes": ["tech_tags", "categories"],
              "label": "Category"
            }
          }
        },
        "label": "Relations"
      }
    },
    "date": {
      "type": "Date",
      "config": {
        "label": "Date de publication"
      }
    },
    "thumbnail": {
      "type": "Image",
      "config": {
        "constraint": {},
        "thumbnails": [],
        "label": "Thumbnail"
      }
    }
  },
  "SEO": {
    "uid": {
      "type": "UID",
      "config": {
        "label": "Unique ID",
        "placeholder": "Type an SEO-friendly identifier..."
      }
    },
    "meta_title": {
      "type": "Text",
      "config": {
        "label": "Meta Title",
        "placeholder": "Meta title..."
      }
    },
    "meta_description": {
      "type": "Text",
      "config": {
        "label": "Meta Description",
        "placeholder": "Meta Description..."
      }
    },
    "keywords": {
      "type": "Text",
      "config": {
        "label": "Keywords"
      }
    }
  },
  "Body": {
    "body": {
      "type": "Slices",
      "fieldset": "Slice zone",
      "config": {
        "labels": {
          "image_with_caption": [
            {
              "name": "emphasized",
              "display": "Emphasized"
            },
            {
              "name": "image-full-width",
              "display": "Full"
            }
          ],
          "snippet": []
        },
        "choices": {
          "text": {
            "type": "Slice",
            "fieldset": "Text",
            "description": "A rich text section",
            "icon": "text_fields",
            "non-repeat": {
              "text": {
                "type": "StructuredText",
                "config": {
                  "multi": "paragraph, preformatted, heading2, heading3, strong, em, hyperlink, embed, list-item, o-list-item, o-list-item",
                  "allowTargetBlank": true,
                  "label": "Text",
                  "placeholder": "Post text..."
                }
              }
            },
            "repeat": {}
          },
          "snippet": {
            "type": "Slice",
            "fieldset": "Snippet",
            "description": "Code Snippet with language",
            "icon": "code",
            "display": "list",
            "non-repeat": {
              "language": {
                "type": "Select",
                "config": {
                  "options": [
                    "javascript",
                    "jsx",
                    "typescript",
                    "html",
                    "css",
                    "markdown",
                    "sql",
                    "json",
                    "php",
                    "python",
                    "ruby",
                    "java",
                    "cpp",
                    "csharp"
                  ],
                  "default_value": "javascript",
                  "label": "Language"
                }
              },
              "code": {
                "type": "StructuredText",
                "config": {
                  "single": "preformatted",
                  "label": "Code",
                  "placeholder": "code snippet"
                }
              }
            },
            "repeat": {}
          },
          "temoignages": {
            "type": "Slice",
            "fieldset": "Témoignages",
            "description": "Témoignages clients",
            "icon": "account_circle",
            "display": "list",
            "non-repeat": {},
            "repeat": {
              "logo___photo": {
                "type": "Image",
                "config": {
                  "constraint": {},
                  "thumbnails": [],
                  "label": "Logo / photo"
                }
              },
              "nom": {
                "type": "StructuredText",
                "config": {
                  "single": "heading1, heading2, heading3, heading4, heading5, heading6",
                  "label": "Nom"
                }
              },
              "entreprise": {
                "type": "StructuredText",
                "config": {
                  "single": "heading1, heading2, heading3, heading4, heading5, heading6",
                  "label": "Entreprise"
                }
              },
              "citation": {
                "type": "StructuredText",
                "config": {
                  "multi": "paragraph, preformatted, heading1, heading2, heading3, heading4, heading5, heading6, strong, em, hyperlink, image, embed, list-item, o-list-item, o-list-item",
                  "label": "Citation"
                }
              }
            }
          },
          "list_of_articles": {
            "type": "Slice",
            "fieldset": "List of Articles",
            "description": "Section title and article list",
            "icon": "photo_filter",
            "non-repeat": {
              "title_of_section": {
                "type": "StructuredText",
                "config": {
                  "multi": "heading2",
                  "label": "Title of Section",
                  "placeholder": "Featured"
                }
              }
            },
            "repeat": {
              "articles_to_link": {
                "type": "Link",
                "config": {
                  "label": "Articles to link",
                  "placeholder": "Selct your article"
                }
              }
            }
          },
          "images_gallery": {
            "type": "Slice",
            "fieldset": "Images Gallery",
            "description": "Gallerie d'images",
            "icon": "fast_forward",
            "display": "list",
            "non-repeat": {},
            "repeat": {
              "image": {
                "type": "Image",
                "config": {
                  "constraint": {},
                  "thumbnails": [],
                  "label": "Image"
                }
              },
              "caption": {
                "type": "Text",
                "config": {
                  "label": "Caption"
                }
              }
            }
          }
        }
      }
    }
  }
}
