{
  "SEO": {
    "uid": {
      "type": "UID",
      "config": {
        "label": "Unique ID",
        "placeholder": "Type an SEO-friendly identifier..."
      }
    },
    "meta_title": {
      "type": "Text",
      "config": {
        "label": "Meta Title",
        "placeholder": "Meta title..."
      }
    },
    "meta_description": {
      "type": "Text",
      "config": {
        "label": "Meta Description",
        "placeholder": "Meta Description..."
      }
    },
    "keywords": {
      "type": "Text",
      "config": {
        "label": "Keywords"
      }
    }
  },
  "Cover": {
    "soustitre": {
      "type": "StructuredText",
      "config": {
        "single": "heading1, heading2, heading3, heading4, heading5, heading6",
        "label": "Sous-titre"
      }
    },
    "titre": {
      "type": "StructuredText",
      "config": {
        "single": "heading1, heading2, heading3, heading4, heading5, heading6",
        "label": "Titre"
      }
    },
    "paragraphe": {
      "type": "StructuredText",
      "config": {
        "multi": "paragraph, preformatted, heading1, heading2, heading3, heading4, heading5, heading6, strong, em, hyperlink, image, embed, list-item, o-list-item, o-list-item",
        "label": "Paragraphe"
      }
    },
    "bg_image": {
      "type": "Image",
      "config": {
        "constraint": {},
        "thumbnails": [],
        "label": "background"
      }
    },
    "image": {
      "type": "Image",
      "config": {
        "constraint": {},
        "thumbnails": [],
        "label": "Image float"
      }
    },
    "link_video": {
      "type": "Link",
      "config": {
        "label": "Link video"
      }
    },
    "link": {
      "type": "Link",
      "config": {
        "label": "link"
      }
    }
  },
  "À propos": {
    "soustitre1": {
      "type": "StructuredText",
      "config": {
        "single": "heading1, heading2, heading3, heading4, heading5, heading6",
        "label": "Sous-titre"
      }
    },
    "titre1": {
      "type": "StructuredText",
      "config": {
        "single": "heading1, heading2, heading3, heading4, heading5, heading6",
        "label": "Titre"
      }
    },
    "paragraphe1": {
      "type": "StructuredText",
      "config": {
        "multi": "paragraph, preformatted, heading1, heading2, heading3, heading4, heading5, heading6, strong, em, hyperlink, image, embed, list-item, o-list-item, o-list-item",
        "label": "Paragraphe"
      }
    }
  },
  "Slices": {
    "body": {
      "type": "Slices",
      "fieldset": "Slice zone",
      "config": {
        "labels": {
          "clients": [],
          "temoignages": [],
          "code_block": []
        },
        "choices": {
          "clients": {
            "type": "Slice",
            "fieldset": "Clients",
            "description": "Sections logos clients",
            "icon": "all_inclusive",
            "display": "list",
            "non-repeat": {},
            "repeat": {
              "logo": {
                "type": "Image",
                "config": {
                  "constraint": {},
                  "thumbnails": [],
                  "label": "Logo"
                }
              },
              "lien": {
                "type": "Link",
                "config": {
                  "label": "Lien"
                }
              }
            }
          },
          "temoignages": {
            "type": "Slice",
            "fieldset": "Témoignages",
            "description": "Témoignages clients",
            "icon": "account_circle",
            "display": "list",
            "non-repeat": {},
            "repeat": {
              "logo___photo": {
                "type": "Image",
                "config": {
                  "constraint": {},
                  "thumbnails": [],
                  "label": "Logo / photo"
                }
              },
              "nom": {
                "type": "StructuredText",
                "config": {
                  "single": "heading5",
                  "label": "Nom"
                }
              },
              "entreprise": {
                "type": "StructuredText",
                "config": {
                  "single": "heading6",
                  "label": "Entreprise"
                }
              },
              "citation": {
                "type": "StructuredText",
                "config": {
                  "multi": "paragraph, preformatted, heading1, heading2, heading3, heading4, heading5, heading6, strong, em, hyperlink, image, embed, list-item, o-list-item, o-list-item",
                  "label": "Citation"
                }
              }
            }
          }
        }
      }
    }
  }
}
