[
  {
    "text": "Accueil",
    "link": "/"
  },
  {
    "text": "L'Agence",
    "link": "/a-propos"
  },
  {
    "text": "Portfolio",
    "link": "/portfolio"
  },
  {
    "text": "Blog",
    "link": "/blog"
  }
]
